Kestrel file combine and clean
…
# Remove NULL results (if any files failed to read)
L1_combining <- L1_combining %>% filter(complete.cases(.))

# check the number of sites and loggers in the file
L1_combining |>
  group_by(loggerID) |> 
  summarize(n = n())

# A tibble: 51 × 2
   loggerID     n
      <dbl> <int>
 1  2592687 22631
 2  2592691 13713
 3  2592692 16818
 4  2592693  5681
 5  2592698 17228
 6  2593299 25839
 7  2593624 49210
 8  2593625 18773
 9  2593626 19826
10  2593627 13304
# ℹ 41 more rows
…
# Check that all loggers are still present
L2 |>
  group_by(loggerID) |> 
  summarize(n = n())

# A tibble: 51 × 2
   loggerID     n
      <dbl> <int>
 1  2592687 21585
 2  2592691 11730
 3  2592692 14318
 4  2592693  5660
 5  2592698 14243
 6  2593299 15148
 7  2593624 35411
 8  2593625 18772
 9  2593626 15977
10  2593627 13304
# ℹ 41 more rows
…
