Kestrel file combine and clean
…
Warning in readLines(file, skip): incomplete final line found on
'/Users/hthroop/ASU Dropbox/Heather Throop/DERT (ThroopLab) ASU/Lab Data &
Metadata
Archives/DEAD_project/logger_data/L2data/~$L2_DEAD_combined_data_230725_HT.csv'

# Remove NULL results (if any files failed to read)
L1_combining <- L1_combining %>% filter(complete.cases(.))

# check the number of sites and loggers in the file
L1_combining |>
  group_by(loggerID) |> 
  summarize(n = n())

# A tibble: 51 × 2
   loggerID     n
      <dbl> <int>
 1  2592687 22631
 2  2592691 13713
 3  2592692 16818
 4  2592693  5681
 5  2592698 17228
 6  2593299 25839
 7  2593624 49210
 8  2593625 18773
 9  2593626 19826
10  2593627 13304
# ℹ 41 more rows
…
# remove any data before the deployment date, using starttime and startdate from KestrelIDs that correspond with each loggerID 
L2 <- L2_cleaning |>
  mutate(start_datetime = as.POSIXct(paste(startdate, starttime), 
                                     format = "%m/%d/%Y %H:%M")) |>
  filter(datetime >= start_datetime) |>
  select(-startdate, -starttime, -loggertime) 

# Check that all loggers are still present
L2 |>
  group_by(loggerID) |> 
  summarize(n = n())

# A tibble: 51 × 2
   loggerID     n
      <dbl> <int>
 1  2592687 19057
 2  2592691  9202
 3  2592692 11791
 4  2592693  3132
 5  2592698  8590
 6  2593299 15205
 7  2593624 29504
 8  2593625 16244
 9  2593626 13455
10  2593627 10983
# ℹ 41 more rows
…
